%!PS-Adobe-2.0 EPSF-1.2
%%Title: Figure(s) by psgr(fig/fdrw).
%%For: glob
%%CreationDate: Wed Aug 31 20:41:48 2016
%%BoundingBox: 68 63 503 493
%%EndComments

%%BeginProlog
/BD{bind def}bind def
/MT{moveto}BD
/LT{lineto}BD
/RMT{rmoveto}BD
/RLT{rlineto}BD
/ST{stroke}BD
/FnC{/Courier}BD
/FnCO{/Courier-Oblique}BD
/FnCB{/Courier-Bold}BD
/FnCBO{/Courier-BoldOblique}BD
/FnS{/Symbol}BD
/SF{
  exch findfont exch
  dup type /arraytype eq{makefont}{scalefont}ifelse
  setfont
}BD
/MS{MT show}BD
/RMS{RMT show}BD
/GS{gsave}BD
/GR{grestore}BD
/NP{newpath}BD
/RP{
dup type dup /integertype eq exch /realtype eq or {
    4 -2 roll MT
    dup 0 exch RLT exch 0 RLT
    neg 0 exch RLT closepath
  }{
    dup length 4 sub 0 exch 4 exch
    {
      1 index exch 4 getinterval
      aload pop
      RP
    }for
    pop
  }ifelse
}BD
/RS{GS NP RP stroke GR}BD
/RF{GS NP RP fill GR}BD
/RC{NP RP clip NP}BD
/TR{translate}BD
/SL{setlinewidth}BD
/SG{setgray}BD
%%EndProlog

%%BeginSetup
%%PaperSize: FALSE
%%PageOrientation: Portrait
%%Feature: *ManualFeed False
%%Feature: *Resolution 600
%%EndSetup

15 15 translate
0.283465 0.283465 scale
2.00 SL
0 setlinejoin
200 250 MT
1700 250 LT
ST
1700 250 MT
1700 750 LT
ST
1700 750 MT
200 750 LT
ST
200 750 MT
200 250 LT
ST
2.00 SL
1 setlinejoin
FnC 42 SF
(0 -x- 191  0 -y- 500) 200 205 MS
GS
200 250 1500 500 RC
[] 0 setdash
200 984 MT
208 950 LT
216 950 LT
224 948 LT
231 938 LT
239 938 LT
247 946 LT
271 946 LT
279 942 LT
318 942 LT
326 940 LT
334 938 LT
341 936 LT
349 934 LT
373 934 LT
381 932 LT
388 932 LT
396 926 LT
404 922 LT
436 922 LT
443 920 LT
451 916 LT
459 909 LT
467 894 LT
475 895 LT
483 894 LT
491 892 LT
498 893 LT
506 891 LT
514 890 LT
522 890 LT
530 882 LT
538 879 LT
546 882 LT
569 882 LT
577 878 LT
585 876 LT
593 904 LT
601 904 LT
608 920 LT
616 922 LT
624 924 LT
632 924 LT
640 923 LT
648 904 LT
655 892 LT
663 882 LT
671 892 LT
679 894 LT
687 896 LT
695 898 LT
703 898 LT
710 894 LT
718 896 LT
726 904 LT
734 914 LT
742 916 LT
750 918 LT
758 920 LT
765 918 LT
773 904 LT
781 894 LT
789 899 LT
797 908 LT
805 914 LT
813 918 LT
820 920 LT
836 920 LT
844 944 LT
852 956 LT
860 956 LT
868 940 LT
875 936 LT
883 934 LT
891 922 LT
899 918 LT
907 936 LT
915 952 LT
923 964 LT
930 950 LT
938 938 LT
946 932 LT
954 921 LT
962 908 LT
970 897 LT
977 956 LT
985 970 LT
993 968 LT
1001 962 LT
1009 968 LT
1017 966 LT
1025 975 LT
1032 980 LT
1040 980 LT
1048 984 LT
1056 978 LT
1064 982 LT
1072 972 LT
1080 970 LT
1087 958 LT
1095 960 LT
1103 250 LT
1127 250 LT
1135 911 LT
1142 914 LT
1150 942 LT
1158 952 LT
1166 956 LT
1174 250 LT
1190 250 LT
1197 1663 LT
1205 1656 LT
1213 1656 LT
1221 1654 LT
1229 1646 LT
1237 1628 LT
1245 250 LT
1260 250 LT
1268 1646 LT
1276 1638 LT
1284 1638 LT
1292 1634 LT
1299 1622 LT
1307 250 LT
1331 250 LT
1339 930 LT
1347 920 LT
1354 932 LT
1362 940 LT
1378 940 LT
1386 938 LT
1394 934 LT
1402 928 LT
1409 926 LT
1417 930 LT
1425 932 LT
1433 934 LT
1441 930 LT
1449 930 LT
1457 934 LT
1464 969 LT
1472 956 LT
1480 934 LT
1488 932 LT
1496 924 LT
1504 914 LT
1512 914 LT
1519 940 LT
1527 947 LT
1535 956 LT
1543 942 LT
1551 934 LT
1559 932 LT
1566 929 LT
1574 924 LT
1582 944 LT
1590 944 LT
1598 929 LT
1606 924 LT
1614 914 LT
1621 912 LT
1629 912 LT
1637 905 LT
1645 250 LT
1700 250 LT
ST
[] 0 setdash
GR
%Trailer
showpage
%%EOF
