%!PS-Adobe-2.0 EPSF-1.2
%%Title: Figure(s) by psgr(fig/fdrw).
%%For: glob
%%CreationDate: Wed Aug 31 20:41:47 2016
%%BoundingBox: 68 63 503 352
%%EndComments

%%BeginProlog
/BD{bind def}bind def
/MT{moveto}BD
/LT{lineto}BD
/RMT{rmoveto}BD
/RLT{rlineto}BD
/ST{stroke}BD
/FnC{/Courier}BD
/FnCO{/Courier-Oblique}BD
/FnCB{/Courier-Bold}BD
/FnCBO{/Courier-BoldOblique}BD
/FnS{/Symbol}BD
/SF{
  exch findfont exch
  dup type /arraytype eq{makefont}{scalefont}ifelse
  setfont
}BD
/MS{MT show}BD
/RMS{RMT show}BD
/GS{gsave}BD
/GR{grestore}BD
/NP{newpath}BD
/RP{
dup type dup /integertype eq exch /realtype eq or {
    4 -2 roll MT
    dup 0 exch RLT exch 0 RLT
    neg 0 exch RLT closepath
  }{
    dup length 4 sub 0 exch 4 exch
    {
      1 index exch 4 getinterval
      aload pop
      RP
    }for
    pop
  }ifelse
}BD
/RS{GS NP RP stroke GR}BD
/RF{GS NP RP fill GR}BD
/RC{NP RP clip NP}BD
/TR{translate}BD
/SL{setlinewidth}BD
/SG{setgray}BD
%%EndProlog

%%BeginSetup
%%PaperSize: FALSE
%%PageOrientation: Portrait
%%Feature: *ManualFeed False
%%Feature: *Resolution 600
%%EndSetup

15 15 translate
0.283465 0.283465 scale
2.00 SL
0 setlinejoin
200 250 MT
1700 250 LT
ST
1700 250 MT
1700 750 LT
ST
1700 750 MT
200 750 LT
ST
200 750 MT
200 250 LT
ST
2.00 SL
1 setlinejoin
FnC 42 SF
(0 -x- 158  0 -y- 500) 200 205 MS
GS
200 250 1500 500 RC
[] 0 setdash
200 250 MT
209 250 LT
760 250 LT
770 1155 LT
779 1148 LT
789 1166 LT
798 1137 LT
808 1122 LT
817 1122 LT
827 1125 LT
836 250 LT
1130 250 LT
1140 1068 LT
1149 1067 LT
1159 1071 LT
1168 1070 LT
1178 1069 LT
1187 1064 LT
1197 1062 LT
1206 1064 LT
1216 1060 LT
1225 1066 LT
1235 1088 LT
1244 1080 LT
1254 1080 LT
1263 1078 LT
1273 1076 LT
1282 1078 LT
1292 1074 LT
1301 1076 LT
1311 1072 LT
1320 1074 LT
1330 1082 LT
1377 1082 LT
1387 1080 LT
1396 1078 LT
1434 1078 LT
1444 1080 LT
1472 1080 LT
1482 1078 LT
1510 1078 LT
1520 1080 LT
1529 1082 LT
1539 1088 LT
1586 1088 LT
1596 1090 LT
1605 250 LT
1700 250 LT
ST
[] 0 setdash
GR
%Trailer
showpage
%%EOF
