%!PS-Adobe-2.0 EPSF-1.2
%%Title: Figure(s) by psgr(fig/fdrw).
%%For: glob
%%CreationDate: Wed Aug 31 20:41:50 2016
%%BoundingBox: 68 63 503 315
%%EndComments

%%BeginProlog
/BD{bind def}bind def
/MT{moveto}BD
/LT{lineto}BD
/RMT{rmoveto}BD
/RLT{rlineto}BD
/ST{stroke}BD
/FnC{/Courier}BD
/FnCO{/Courier-Oblique}BD
/FnCB{/Courier-Bold}BD
/FnCBO{/Courier-BoldOblique}BD
/FnS{/Symbol}BD
/SF{
  exch findfont exch
  dup type /arraytype eq{makefont}{scalefont}ifelse
  setfont
}BD
/MS{MT show}BD
/RMS{RMT show}BD
/GS{gsave}BD
/GR{grestore}BD
/NP{newpath}BD
/RP{
dup type dup /integertype eq exch /realtype eq or {
    4 -2 roll MT
    dup 0 exch RLT exch 0 RLT
    neg 0 exch RLT closepath
  }{
    dup length 4 sub 0 exch 4 exch
    {
      1 index exch 4 getinterval
      aload pop
      RP
    }for
    pop
  }ifelse
}BD
/RS{GS NP RP stroke GR}BD
/RF{GS NP RP fill GR}BD
/RC{NP RP clip NP}BD
/TR{translate}BD
/SL{setlinewidth}BD
/SG{setgray}BD
%%EndProlog

%%BeginSetup
%%PaperSize: FALSE
%%PageOrientation: Portrait
%%Feature: *ManualFeed False
%%Feature: *Resolution 600
%%EndSetup

15 15 translate
0.283465 0.283465 scale
2.00 SL
0 setlinejoin
200 250 MT
1700 250 LT
ST
1700 250 MT
1700 750 LT
ST
1700 750 MT
200 750 LT
ST
200 750 MT
200 250 LT
ST
2.00 SL
1 setlinejoin
FnC 42 SF
(0 -x- 147  0 -y- 500) 200 205 MS
GS
200 250 1500 500 RC
[] 0 setdash
200 1006 MT
210 1006 LT
220 1016 LT
231 1020 LT
241 1024 LT
251 1036 LT
261 1031 LT
271 1010 LT
282 996 LT
292 986 LT
312 986 LT
322 988 LT
333 988 LT
343 992 LT
353 991 LT
363 989 LT
373 996 LT
384 992 LT
394 990 LT
404 990 LT
414 988 LT
424 988 LT
435 991 LT
445 992 LT
455 990 LT
465 992 LT
516 992 LT
527 995 LT
537 995 LT
547 994 LT
567 994 LT
578 996 LT
618 996 LT
629 994 LT
639 996 LT
649 996 LT
659 998 LT
669 996 LT
710 996 LT
720 998 LT
731 998 LT
741 996 LT
751 996 LT
761 1000 LT
771 1002 LT
782 1004 LT
833 1004 LT
843 1006 LT
853 1004 LT
863 1006 LT
873 1008 LT
924 1008 LT
935 1006 LT
945 1004 LT
1016 1004 LT
1027 1006 LT
1037 1008 LT
1047 1010 LT
1057 1012 LT
1108 1012 LT
1118 1009 LT
1129 1006 LT
1139 1007 LT
1149 1008 LT
1271 1008 LT
1282 1006 LT
1322 1006 LT
1333 1008 LT
1363 1008 LT
1373 1006 LT
1384 1005 LT
1394 1000 LT
1404 997 LT
1414 994 LT
1424 996 LT
1435 998 LT
1445 1004 LT
1455 1006 LT
1465 1004 LT
1476 1002 LT
1486 998 LT
1496 996 LT
1506 996 LT
1516 1002 LT
1527 1003 LT
1537 1007 LT
1547 1008 LT
1557 1000 LT
1567 998 LT
1578 996 LT
1588 994 LT
1598 992 LT
1608 250 LT
1700 250 LT
ST
[] 0 setdash
GR
%Trailer
showpage
%%EOF
