%!PS-Adobe-2.0 EPSF-1.2
%%Title: Figure(s) by psgr(fig/fdrw).
%%For: glob
%%CreationDate: Wed Aug 31 20:41:47 2016
%%BoundingBox: 68 63 503 355
%%EndComments

%%BeginProlog
/BD{bind def}bind def
/MT{moveto}BD
/LT{lineto}BD
/RMT{rmoveto}BD
/RLT{rlineto}BD
/ST{stroke}BD
/FnC{/Courier}BD
/FnCO{/Courier-Oblique}BD
/FnCB{/Courier-Bold}BD
/FnCBO{/Courier-BoldOblique}BD
/FnS{/Symbol}BD
/SF{
  exch findfont exch
  dup type /arraytype eq{makefont}{scalefont}ifelse
  setfont
}BD
/MS{MT show}BD
/RMS{RMT show}BD
/GS{gsave}BD
/GR{grestore}BD
/NP{newpath}BD
/RP{
dup type dup /integertype eq exch /realtype eq or {
    4 -2 roll MT
    dup 0 exch RLT exch 0 RLT
    neg 0 exch RLT closepath
  }{
    dup length 4 sub 0 exch 4 exch
    {
      1 index exch 4 getinterval
      aload pop
      RP
    }for
    pop
  }ifelse
}BD
/RS{GS NP RP stroke GR}BD
/RF{GS NP RP fill GR}BD
/RC{NP RP clip NP}BD
/TR{translate}BD
/SL{setlinewidth}BD
/SG{setgray}BD
%%EndProlog

%%BeginSetup
%%PaperSize: FALSE
%%PageOrientation: Portrait
%%Feature: *ManualFeed False
%%Feature: *Resolution 600
%%EndSetup

15 15 translate
0.283465 0.283465 scale
2.00 SL
0 setlinejoin
200 250 MT
1700 250 LT
ST
1700 250 MT
1700 750 LT
ST
1700 750 MT
200 750 LT
ST
200 750 MT
200 250 LT
ST
2.00 SL
1 setlinejoin
FnC 42 SF
(0 -x- 239  0 -y- 500) 200 205 MS
GS
200 250 1500 500 RC
[] 0 setdash
200 890 MT
206 886 LT
213 886 LT
219 888 LT
231 888 LT
238 879 LT
244 250 LT
250 250 LT
256 1170 LT
263 1172 LT
275 1172 LT
282 1171 LT
288 1169 LT
294 1178 LT
326 1178 LT
332 1176 LT
338 1170 LT
344 1164 LT
351 1160 LT
357 1067 LT
363 1054 LT
369 1055 LT
376 1054 LT
395 1054 LT
401 1056 LT
407 1058 LT
413 1062 LT
420 1062 LT
426 1070 LT
451 1070 LT
457 1072 LT
464 1072 LT
470 1070 LT
476 1070 LT
482 1068 LT
489 1074 LT
539 1074 LT
545 1076 LT
551 1075 LT
558 1072 LT
595 1072 LT
602 1073 LT
608 1076 LT
614 1076 LT
621 1070 LT
677 1070 LT
683 1072 LT
721 1072 LT
727 1070 LT
733 1068 LT
740 1068 LT
746 1065 LT
752 1066 LT
790 1066 LT
796 1064 LT
809 1064 LT
815 1060 LT
859 1060 LT
865 1061 LT
872 1060 LT
903 1060 LT
909 1061 LT
915 1060 LT
922 1058 LT
934 1058 LT
941 1052 LT
985 1052 LT
991 1054 LT
997 1054 LT
1003 1047 LT
1010 1048 LT
1028 1048 LT
1035 1046 LT
1047 1046 LT
1054 1044 LT
1060 1042 LT
1085 1042 LT
1091 1040 LT
1110 1040 LT
1116 1042 LT
1123 1046 LT
1129 1042 LT
1154 1042 LT
1160 1040 LT
1167 1040 LT
1173 1042 LT
1179 1042 LT
1185 1045 LT
1192 1040 LT
1210 1040 LT
1217 1039 LT
1223 1038 LT
1229 1038 LT
1236 1040 LT
1242 1044 LT
1248 1037 LT
1254 1042 LT
1292 1042 LT
1298 1040 LT
1305 1042 LT
1311 1036 LT
1317 1040 LT
1330 1040 LT
1336 1042 LT
1342 1042 LT
1349 1040 LT
1355 1042 LT
1361 1042 LT
1367 1044 LT
1399 1044 LT
1405 1042 LT
1411 1042 LT
1418 1039 LT
1424 1043 LT
1430 1044 LT
1436 1042 LT
1443 1044 LT
1462 1044 LT
1468 1042 LT
1474 1044 LT
1480 1044 LT
1487 1048 LT
1493 1048 LT
1499 1046 LT
1524 1046 LT
1531 1045 LT
1537 1044 LT
1543 1040 LT
1549 1038 LT
1556 1038 LT
1562 1045 LT
1568 1044 LT
1574 1045 LT
1581 1045 LT
1587 250 LT
1612 250 LT
1618 992 LT
1625 997 LT
1637 997 LT
1644 995 LT
1650 250 LT
1700 250 LT
ST
[] 0 setdash
GR
%Trailer
showpage
%%EOF
