%!PS-Adobe-2.0 EPSF-1.2
%%Title: Figure(s) by psgr(fig/fdrw).
%%For: glob
%%CreationDate: Wed Aug 31 20:41:47 2016
%%BoundingBox: 68 63 503 286
%%EndComments

%%BeginProlog
/BD{bind def}bind def
/MT{moveto}BD
/LT{lineto}BD
/RMT{rmoveto}BD
/RLT{rlineto}BD
/ST{stroke}BD
/FnC{/Courier}BD
/FnCO{/Courier-Oblique}BD
/FnCB{/Courier-Bold}BD
/FnCBO{/Courier-BoldOblique}BD
/FnS{/Symbol}BD
/SF{
  exch findfont exch
  dup type /arraytype eq{makefont}{scalefont}ifelse
  setfont
}BD
/MS{MT show}BD
/RMS{RMT show}BD
/GS{gsave}BD
/GR{grestore}BD
/NP{newpath}BD
/RP{
dup type dup /integertype eq exch /realtype eq or {
    4 -2 roll MT
    dup 0 exch RLT exch 0 RLT
    neg 0 exch RLT closepath
  }{
    dup length 4 sub 0 exch 4 exch
    {
      1 index exch 4 getinterval
      aload pop
      RP
    }for
    pop
  }ifelse
}BD
/RS{GS NP RP stroke GR}BD
/RF{GS NP RP fill GR}BD
/RC{NP RP clip NP}BD
/TR{translate}BD
/SL{setlinewidth}BD
/SG{setgray}BD
%%EndProlog

%%BeginSetup
%%PaperSize: FALSE
%%PageOrientation: Portrait
%%Feature: *ManualFeed False
%%Feature: *Resolution 600
%%EndSetup

15 15 translate
0.283465 0.283465 scale
2.00 SL
0 setlinejoin
200 250 MT
1700 250 LT
ST
1700 250 MT
1700 750 LT
ST
1700 750 MT
200 750 LT
ST
200 750 MT
200 250 LT
ST
2.00 SL
1 setlinejoin
FnC 42 SF
(0 -x- 294  0 -y- 500) 200 205 MS
GS
200 250 1500 500 RC
[] 0 setdash
200 896 MT
205 896 LT
358 896 LT
363 894 LT
373 894 LT
379 896 LT
455 896 LT
460 894 LT
501 894 LT
506 896 LT
537 896 LT
542 894 LT
583 894 LT
588 892 LT
700 892 LT
705 890 LT
710 892 LT
726 892 LT
731 890 LT
751 890 LT
756 888 LT
771 888 LT
777 890 LT
782 888 LT
787 890 LT
868 890 LT
873 892 LT
909 892 LT
914 894 LT
919 896 LT
930 896 LT
935 894 LT
950 894 LT
955 896 LT
991 896 LT
996 898 LT
1032 898 LT
1037 900 LT
1134 900 LT
1139 902 LT
1200 902 LT
1205 904 LT
1287 904 LT
1292 906 LT
1312 906 LT
1317 908 LT
1389 908 LT
1394 910 LT
1409 910 LT
1414 912 LT
1455 912 LT
1460 914 LT
1491 914 LT
1496 916 LT
1516 916 LT
1521 918 LT
1537 918 LT
1542 920 LT
1562 920 LT
1567 922 LT
1572 922 LT
1578 924 LT
1583 924 LT
1588 926 LT
1613 926 LT
1618 927 LT
1623 930 LT
1629 932 LT
1639 932 LT
1644 927 LT
1649 922 LT
1654 250 LT
1700 250 LT
ST
[] 0 setdash
GR
%Trailer
showpage
%%EOF
