%!PS-Adobe-2.0 EPSF-1.2
%%Title: Figure(s) by psgr(fig/fdrw).
%%For: glob
%%CreationDate: Thu Sep  1 00:31:55 2016
%%BoundingBox: 68 63 503 395
%%EndComments

%%BeginProlog
/BD{bind def}bind def
/MT{moveto}BD
/LT{lineto}BD
/RMT{rmoveto}BD
/RLT{rlineto}BD
/ST{stroke}BD
/FnC{/Courier}BD
/FnCO{/Courier-Oblique}BD
/FnCB{/Courier-Bold}BD
/FnCBO{/Courier-BoldOblique}BD
/FnS{/Symbol}BD
/SF{
  exch findfont exch
  dup type /arraytype eq{makefont}{scalefont}ifelse
  setfont
}BD
/MS{MT show}BD
/RMS{RMT show}BD
/GS{gsave}BD
/GR{grestore}BD
/NP{newpath}BD
/RP{
dup type dup /integertype eq exch /realtype eq or {
    4 -2 roll MT
    dup 0 exch RLT exch 0 RLT
    neg 0 exch RLT closepath
  }{
    dup length 4 sub 0 exch 4 exch
    {
      1 index exch 4 getinterval
      aload pop
      RP
    }for
    pop
  }ifelse
}BD
/RS{GS NP RP stroke GR}BD
/RF{GS NP RP fill GR}BD
/RC{NP RP clip NP}BD
/TR{translate}BD
/SL{setlinewidth}BD
/SG{setgray}BD
%%EndProlog

%%BeginSetup
%%PaperSize: FALSE
%%PageOrientation: Portrait
%%Feature: *ManualFeed False
%%Feature: *Resolution 600
%%EndSetup

15 15 translate
0.283465 0.283465 scale
2.00 SL
0 setlinejoin
200 250 MT
1700 250 LT
ST
1700 250 MT
1700 750 LT
ST
1700 750 MT
200 750 LT
ST
200 750 MT
200 250 LT
ST
2.00 SL
1 setlinejoin
FnC 42 SF
(0 -x- 348  0 -y- 500) 200 205 MS
GS
200 250 1500 500 RC
[] 0 setdash
200 250 MT
204 250 LT
424 250 LT
428 910 LT
433 912 LT
437 911 LT
441 923 LT
446 906 LT
450 892 LT
454 902 LT
459 906 LT
463 250 LT
467 1194 LT
472 1182 LT
476 1184 LT
480 1138 LT
484 1123 LT
489 1130 LT
493 1135 LT
497 1147 LT
502 1153 LT
506 1132 LT
510 1118 LT
515 1089 LT
519 1082 LT
523 1068 LT
528 1067 LT
532 1036 LT
536 1010 LT
541 1010 LT
545 1008 LT
549 994 LT
553 986 LT
558 1063 LT
562 1057 LT
566 1078 LT
571 1167 LT
575 1154 LT
579 1137 LT
588 1137 LT
592 1133 LT
597 1130 LT
601 1126 LT
605 1114 LT
609 1100 LT
614 1102 LT
618 1102 LT
622 1082 LT
627 1077 LT
631 1076 LT
635 1077 LT
640 1075 LT
644 1076 LT
648 1080 LT
657 1080 LT
661 1086 LT
666 1083 LT
670 1078 LT
683 1078 LT
687 1076 LT
691 1076 LT
696 1072 LT
700 1068 LT
704 1070 LT
709 1068 LT
713 1068 LT
717 1070 LT
726 1070 LT
730 1067 LT
734 1070 LT
739 1070 LT
743 1069 LT
747 1070 LT
752 1080 LT
756 1067 LT
760 1070 LT
769 1070 LT
773 1068 LT
778 1066 LT
782 1059 LT
786 1058 LT
795 1058 LT
799 1052 LT
803 1062 LT
808 1063 LT
812 1062 LT
816 1061 LT
821 1061 LT
825 1062 LT
829 1061 LT
834 1064 LT
838 1063 LT
842 1048 LT
847 1056 LT
851 1058 LT
855 1059 LT
859 1058 LT
864 1046 LT
868 1046 LT
872 1043 LT
877 1042 LT
881 1047 LT
885 1060 LT
890 1053 LT
894 1055 LT
898 1050 LT
903 1042 LT
907 1039 LT
916 1039 LT
920 1038 LT
924 1039 LT
928 1034 LT
933 1044 LT
937 1047 LT
941 1045 LT
946 1037 LT
950 1034 LT
954 1030 LT
959 1027 LT
963 1024 LT
967 1042 LT
972 1044 LT
976 1041 LT
980 1036 LT
984 1035 LT
989 1032 LT
993 1031 LT
997 1028 LT
1002 1024 LT
1006 1022 LT
1010 1040 LT
1015 1055 LT
1019 1050 LT
1023 1052 LT
1028 1051 LT
1032 1049 LT
1036 1048 LT
1041 1045 LT
1045 1044 LT
1049 1032 LT
1053 1025 LT
1058 1032 LT
1062 1045 LT
1066 1047 LT
1071 1046 LT
1075 1045 LT
1079 1043 LT
1084 1032 LT
1088 1028 LT
1092 1028 LT
1097 1027 LT
1101 1031 LT
1105 1046 LT
1109 1048 LT
1114 1047 LT
1118 1046 LT
1122 1043 LT
1127 1038 LT
1131 1037 LT
1135 1041 LT
1140 1045 LT
1144 1050 LT
1148 1044 LT
1157 1044 LT
1161 1041 LT
1166 1039 LT
1170 1036 LT
1174 1024 LT
1178 1026 LT
1183 1028 LT
1187 1030 LT
1191 1045 LT
1196 1043 LT
1200 1042 LT
1204 1041 LT
1209 1035 LT
1213 1034 LT
1217 1030 LT
1222 1026 LT
1226 1036 LT
1230 1036 LT
1234 1045 LT
1239 1045 LT
1243 1046 LT
1247 1045 LT
1252 1045 LT
1256 1046 LT
1260 1040 LT
1265 1038 LT
1269 1037 LT
1273 1036 LT
1278 1048 LT
1282 1048 LT
1286 1053 LT
1291 1053 LT
1295 1050 LT
1308 1050 LT
1312 1056 LT
1316 1056 LT
1321 1054 LT
1329 1054 LT
1334 1051 LT
1338 1054 LT
1342 1052 LT
1351 1052 LT
1355 1056 LT
1359 1058 LT
1364 1054 LT
1368 1055 LT
1372 1054 LT
1381 1054 LT
1385 1052 LT
1390 1050 LT
1394 1048 LT
1398 1046 LT
1403 1046 LT
1407 1058 LT
1411 1058 LT
1416 1061 LT
1420 1060 LT
1433 1060 LT
1437 1062 LT
1441 1062 LT
1446 1064 LT
1450 1062 LT
1467 1062 LT
1472 1058 LT
1476 1053 LT
1480 1052 LT
1484 1046 LT
1489 1044 LT
1493 1060 LT
1497 1064 LT
1502 1068 LT
1506 1068 LT
1510 1066 LT
1519 1066 LT
1523 1064 LT
1528 1072 LT
1532 250 LT
1614 250 LT
1618 1316 LT
1622 1298 LT
1627 1294 LT
1635 1294 LT
1640 250 LT
1700 250 LT
ST
[] 0 setdash
GR
%Trailer
showpage
%%EOF
