%!PS-Adobe-2.0 EPSF-1.2
%%Title: Figure(s) by psgr(fig/fdrw).
%%For: glob
%%CreationDate: Wed Aug 31 20:41:50 2016
%%BoundingBox: 68 63 503 459
%%EndComments

%%BeginProlog
/BD{bind def}bind def
/MT{moveto}BD
/LT{lineto}BD
/RMT{rmoveto}BD
/RLT{rlineto}BD
/ST{stroke}BD
/FnC{/Courier}BD
/FnCO{/Courier-Oblique}BD
/FnCB{/Courier-Bold}BD
/FnCBO{/Courier-BoldOblique}BD
/FnS{/Symbol}BD
/SF{
  exch findfont exch
  dup type /arraytype eq{makefont}{scalefont}ifelse
  setfont
}BD
/MS{MT show}BD
/RMS{RMT show}BD
/GS{gsave}BD
/GR{grestore}BD
/NP{newpath}BD
/RP{
dup type dup /integertype eq exch /realtype eq or {
    4 -2 roll MT
    dup 0 exch RLT exch 0 RLT
    neg 0 exch RLT closepath
  }{
    dup length 4 sub 0 exch 4 exch
    {
      1 index exch 4 getinterval
      aload pop
      RP
    }for
    pop
  }ifelse
}BD
/RS{GS NP RP stroke GR}BD
/RF{GS NP RP fill GR}BD
/RC{NP RP clip NP}BD
/TR{translate}BD
/SL{setlinewidth}BD
/SG{setgray}BD
%%EndProlog

%%BeginSetup
%%PaperSize: FALSE
%%PageOrientation: Portrait
%%Feature: *ManualFeed False
%%Feature: *Resolution 600
%%EndSetup

15 15 translate
0.283465 0.283465 scale
2.00 SL
0 setlinejoin
200 250 MT
1700 250 LT
ST
1700 250 MT
1700 750 LT
ST
1700 750 MT
200 750 LT
ST
200 750 MT
200 250 LT
ST
2.00 SL
1 setlinejoin
FnC 42 SF
(0 -x- 143  0 -y- 500) 200 205 MS
GS
200 250 1500 500 RC
[] 0 setdash
200 250 MT
210 250 LT
231 250 LT
242 903 LT
252 892 LT
263 851 LT
273 820 LT
284 824 LT
294 820 LT
305 808 LT
315 798 LT
326 797 LT
336 250 LT
515 250 LT
525 1527 LT
536 1544 LT
546 1522 LT
557 1479 LT
567 1402 LT
578 1349 LT
588 1325 LT
599 1303 LT
609 1254 LT
620 1212 LT
630 1201 LT
641 1197 LT
651 1189 LT
662 1201 LT
672 1205 LT
683 1216 LT
693 1230 LT
703 1238 LT
714 1223 LT
724 1201 LT
735 1185 LT
745 1140 LT
756 1118 LT
766 1108 LT
777 1080 LT
787 1060 LT
798 1048 LT
808 1043 LT
819 1023 LT
829 1022 LT
840 1022 LT
850 250 LT
913 250 LT
924 652 LT
934 641 LT
945 652 LT
955 656 LT
966 250 LT
1050 250 LT
1060 934 LT
1071 933 LT
1081 932 LT
1102 932 LT
1113 250 LT
1700 250 LT
ST
[] 0 setdash
GR
%Trailer
showpage
%%EOF
