%!PS-Adobe-2.0 EPSF-1.2
%%Title: Figure(s) by psgr(fig/fdrw).
%%For: glob
%%CreationDate: Wed Aug 31 20:41:47 2016
%%BoundingBox: 68 63 503 346
%%EndComments

%%BeginProlog
/BD{bind def}bind def
/MT{moveto}BD
/LT{lineto}BD
/RMT{rmoveto}BD
/RLT{rlineto}BD
/ST{stroke}BD
/FnC{/Courier}BD
/FnCO{/Courier-Oblique}BD
/FnCB{/Courier-Bold}BD
/FnCBO{/Courier-BoldOblique}BD
/FnS{/Symbol}BD
/SF{
  exch findfont exch
  dup type /arraytype eq{makefont}{scalefont}ifelse
  setfont
}BD
/MS{MT show}BD
/RMS{RMT show}BD
/GS{gsave}BD
/GR{grestore}BD
/NP{newpath}BD
/RP{
dup type dup /integertype eq exch /realtype eq or {
    4 -2 roll MT
    dup 0 exch RLT exch 0 RLT
    neg 0 exch RLT closepath
  }{
    dup length 4 sub 0 exch 4 exch
    {
      1 index exch 4 getinterval
      aload pop
      RP
    }for
    pop
  }ifelse
}BD
/RS{GS NP RP stroke GR}BD
/RF{GS NP RP fill GR}BD
/RC{NP RP clip NP}BD
/TR{translate}BD
/SL{setlinewidth}BD
/SG{setgray}BD
%%EndProlog

%%BeginSetup
%%PaperSize: FALSE
%%PageOrientation: Portrait
%%Feature: *ManualFeed False
%%Feature: *Resolution 600
%%EndSetup

15 15 translate
0.283465 0.283465 scale
2.00 SL
0 setlinejoin
200 250 MT
1700 250 LT
ST
1700 250 MT
1700 750 LT
ST
1700 750 MT
200 750 LT
ST
200 750 MT
200 250 LT
ST
2.00 SL
1 setlinejoin
FnC 42 SF
(0 -x- 228  0 -y- 500) 200 205 MS
GS
200 250 1500 500 RC
[] 0 setdash
200 250 MT
207 250 LT
233 250 LT
239 1045 LT
246 1046 LT
253 1044 LT
259 1046 LT
266 1044 LT
272 1040 LT
279 1045 LT
286 1044 LT
292 1043 LT
299 1046 LT
305 1047 LT
312 1052 LT
325 1052 LT
332 1051 LT
338 1049 LT
345 1048 LT
351 1044 LT
364 1044 LT
371 1046 LT
378 1050 LT
384 1050 LT
391 1051 LT
397 1050 LT
404 1047 LT
424 1047 LT
430 1048 LT
437 1050 LT
443 1053 LT
450 1053 LT
457 1054 LT
463 1053 LT
470 1050 LT
476 1052 LT
489 1052 LT
496 1054 LT
503 1058 LT
529 1058 LT
536 1056 LT
542 1054 LT
562 1054 LT
568 1058 LT
575 1060 LT
582 1060 LT
588 1062 LT
595 1060 LT
601 1060 LT
608 1063 LT
614 1065 LT
621 1066 LT
628 1068 LT
634 1066 LT
641 1068 LT
667 1068 LT
674 1066 LT
680 1064 LT
687 1064 LT
693 1062 LT
700 1064 LT
707 1072 LT
746 1072 LT
753 1074 LT
759 1076 LT
766 1075 LT
772 1074 LT
792 1074 LT
799 1072 LT
805 1072 LT
812 1067 LT
818 1067 LT
825 1066 LT
832 1070 LT
838 1068 LT
864 1068 LT
871 1066 LT
878 1068 LT
884 1068 LT
891 1070 LT
897 1072 LT
924 1072 LT
930 1071 LT
937 1070 LT
950 1070 LT
957 1072 LT
963 1072 LT
970 1065 LT
976 1066 LT
1029 1066 LT
1036 1067 LT
1042 1072 LT
1082 1072 LT
1088 1068 LT
1095 1063 LT
1101 1064 LT
1108 1068 LT
1147 1068 LT
1154 1069 LT
1161 1070 LT
1167 1074 LT
1174 1080 LT
1207 1080 LT
1213 1078 LT
1220 1076 LT
1226 1074 LT
1233 1074 LT
1239 1076 LT
1246 1080 LT
1266 1080 LT
1272 1084 LT
1279 1088 LT
1286 1091 LT
1292 1091 LT
1299 1089 LT
1305 1088 LT
1312 1074 LT
1332 1074 LT
1338 1076 LT
1345 1073 LT
1351 1068 LT
1358 1066 LT
1364 1065 LT
1371 1068 LT
1378 1076 LT
1424 1076 LT
1430 1074 LT
1437 1072 LT
1443 1071 LT
1450 1072 LT
1476 1072 LT
1483 1076 LT
1489 1077 LT
1496 1078 LT
1503 1082 LT
1509 1086 LT
1516 1096 LT
1536 1096 LT
1542 1097 LT
1549 1098 LT
1555 1096 LT
1568 1096 LT
1575 1106 LT
1582 1133 LT
1588 1142 LT
1595 1142 LT
1601 1144 LT
1608 1146 LT
1614 250 LT
1700 250 LT
ST
[] 0 setdash
GR
%Trailer
showpage
%%EOF
