%!PS-Adobe-2.0 EPSF-1.2
%%Title: Figure(s) by psgr(fig/fdrw).
%%For: glob
%%CreationDate: Wed Aug 31 20:41:50 2016
%%BoundingBox: 68 63 503 416
%%EndComments

%%BeginProlog
/BD{bind def}bind def
/MT{moveto}BD
/LT{lineto}BD
/RMT{rmoveto}BD
/RLT{rlineto}BD
/ST{stroke}BD
/FnC{/Courier}BD
/FnCO{/Courier-Oblique}BD
/FnCB{/Courier-Bold}BD
/FnCBO{/Courier-BoldOblique}BD
/FnS{/Symbol}BD
/SF{
  exch findfont exch
  dup type /arraytype eq{makefont}{scalefont}ifelse
  setfont
}BD
/MS{MT show}BD
/RMS{RMT show}BD
/GS{gsave}BD
/GR{grestore}BD
/NP{newpath}BD
/RP{
dup type dup /integertype eq exch /realtype eq or {
    4 -2 roll MT
    dup 0 exch RLT exch 0 RLT
    neg 0 exch RLT closepath
  }{
    dup length 4 sub 0 exch 4 exch
    {
      1 index exch 4 getinterval
      aload pop
      RP
    }for
    pop
  }ifelse
}BD
/RS{GS NP RP stroke GR}BD
/RF{GS NP RP fill GR}BD
/RC{NP RP clip NP}BD
/TR{translate}BD
/SL{setlinewidth}BD
/SG{setgray}BD
%%EndProlog

%%BeginSetup
%%PaperSize: FALSE
%%PageOrientation: Portrait
%%Feature: *ManualFeed False
%%Feature: *Resolution 600
%%EndSetup

15 15 translate
0.283465 0.283465 scale
2.00 SL
0 setlinejoin
200 250 MT
1700 250 LT
ST
1700 250 MT
1700 750 LT
ST
1700 750 MT
200 750 LT
ST
200 750 MT
200 250 LT
ST
2.00 SL
1 setlinejoin
FnC 42 SF
(0 -x- 263  0 -y- 500) 200 205 MS
GS
200 250 1500 500 RC
[] 0 setdash
200 250 MT
206 250 LT
251 250 LT
257 910 LT
263 873 LT
268 854 LT
274 860 LT
280 846 LT
286 830 LT
291 816 LT
297 250 LT
303 1356 LT
308 1390 LT
325 1390 LT
331 1384 LT
337 1378 LT
343 1374 LT
348 1378 LT
354 250 LT
377 250 LT
383 1002 LT
388 954 LT
394 932 LT
400 935 LT
405 928 LT
411 924 LT
417 918 LT
422 250 LT
428 1080 LT
434 1078 LT
440 1068 LT
445 1070 LT
462 1070 LT
468 1068 LT
474 1070 LT
479 1069 LT
485 1054 LT
491 1047 LT
497 1046 LT
502 1050 LT
508 1050 LT
514 1052 LT
525 1052 LT
531 1051 LT
537 1050 LT
542 1045 LT
548 1045 LT
554 1052 LT
559 1060 LT
565 1062 LT
571 1064 LT
576 1064 LT
582 1066 LT
588 1064 LT
594 1062 LT
599 1048 LT
605 1046 LT
611 1048 LT
616 1054 LT
622 1056 LT
628 1058 LT
639 1058 LT
645 1057 LT
651 1048 LT
656 1042 LT
662 1042 LT
668 1054 LT
673 1058 LT
679 1056 LT
685 1056 LT
690 1058 LT
702 1058 LT
708 1042 LT
713 1039 LT
719 1036 LT
725 1042 LT
730 1054 LT
736 1050 LT
742 1052 LT
748 1054 LT
753 1054 LT
759 1043 LT
765 1043 LT
770 1040 LT
776 1040 LT
782 1041 LT
787 1048 LT
793 1050 LT
799 1054 LT
805 1056 LT
810 1058 LT
816 1054 LT
822 1054 LT
827 1044 LT
833 1045 LT
839 1050 LT
844 1054 LT
862 1054 LT
867 1052 LT
873 1039 LT
879 1049 LT
884 1046 LT
890 1054 LT
896 1057 LT
902 1061 LT
907 1064 LT
913 1060 LT
919 1061 LT
924 1062 LT
930 1057 LT
936 1057 LT
941 1049 LT
947 1048 LT
953 1045 LT
959 1040 LT
964 1045 LT
970 1046 LT
981 1046 LT
987 1048 LT
993 1050 LT
998 1041 LT
1004 1028 LT
1010 1018 LT
1016 1006 LT
1021 1037 LT
1027 1042 LT
1038 1042 LT
1044 1034 LT
1050 1131 LT
1056 1077 LT
1061 1074 LT
1067 1072 LT
1073 1053 LT
1078 1050 LT
1084 1039 LT
1090 1038 LT
1095 1034 LT
1101 1030 LT
1107 1084 LT
1113 1072 LT
1118 1065 LT
1124 1059 LT
1130 1040 LT
1135 1044 LT
1141 1036 LT
1152 1036 LT
1158 1037 LT
1164 1046 LT
1170 1046 LT
1175 1035 LT
1181 1034 LT
1192 1034 LT
1198 1032 LT
1204 1030 LT
1210 1030 LT
1215 1033 LT
1221 1048 LT
1227 1054 LT
1232 1053 LT
1238 1049 LT
1244 1050 LT
1249 1058 LT
1255 1056 LT
1261 1058 LT
1267 1045 LT
1272 1044 LT
1278 1036 LT
1284 1030 LT
1289 1027 LT
1295 1028 LT
1301 1032 LT
1306 1041 LT
1312 1040 LT
1318 1035 LT
1324 1020 LT
1329 250 LT
1335 250 LT
1341 1062 LT
1346 1054 LT
1352 1040 LT
1358 1044 LT
1363 1056 LT
1369 1059 LT
1375 1058 LT
1381 1056 LT
1386 1032 LT
1392 1026 LT
1398 1020 LT
1403 1017 LT
1409 1018 LT
1415 1020 LT
1421 1017 LT
1426 1020 LT
1432 1028 LT
1438 1030 LT
1443 1036 LT
1449 1054 LT
1455 1059 LT
1460 1059 LT
1466 1056 LT
1472 1062 LT
1478 1064 LT
1483 1057 LT
1489 1054 LT
1495 1038 LT
1500 1056 LT
1506 1076 LT
1512 1058 LT
1517 1041 LT
1523 1022 LT
1529 1033 LT
1535 1036 LT
1540 1034 LT
1546 1014 LT
1552 250 LT
1603 250 LT
1609 936 LT
1614 928 LT
1620 934 LT
1626 908 LT
1632 936 LT
1637 898 LT
1643 900 LT
1649 898 LT
1654 892 LT
1660 250 LT
1700 250 LT
ST
[] 0 setdash
GR
%Trailer
showpage
%%EOF
