%!PS-Adobe-2.0 EPSF-1.2
%%Title: Figure(s) by psgr(fig/fdrw).
%%For: glob
%%CreationDate: Wed Aug 31 20:41:50 2016
%%BoundingBox: 68 63 503 353
%%EndComments

%%BeginProlog
/BD{bind def}bind def
/MT{moveto}BD
/LT{lineto}BD
/RMT{rmoveto}BD
/RLT{rlineto}BD
/ST{stroke}BD
/FnC{/Courier}BD
/FnCO{/Courier-Oblique}BD
/FnCB{/Courier-Bold}BD
/FnCBO{/Courier-BoldOblique}BD
/FnS{/Symbol}BD
/SF{
  exch findfont exch
  dup type /arraytype eq{makefont}{scalefont}ifelse
  setfont
}BD
/MS{MT show}BD
/RMS{RMT show}BD
/GS{gsave}BD
/GR{grestore}BD
/NP{newpath}BD
/RP{
dup type dup /integertype eq exch /realtype eq or {
    4 -2 roll MT
    dup 0 exch RLT exch 0 RLT
    neg 0 exch RLT closepath
  }{
    dup length 4 sub 0 exch 4 exch
    {
      1 index exch 4 getinterval
      aload pop
      RP
    }for
    pop
  }ifelse
}BD
/RS{GS NP RP stroke GR}BD
/RF{GS NP RP fill GR}BD
/RC{NP RP clip NP}BD
/TR{translate}BD
/SL{setlinewidth}BD
/SG{setgray}BD
%%EndProlog

%%BeginSetup
%%PaperSize: FALSE
%%PageOrientation: Portrait
%%Feature: *ManualFeed False
%%Feature: *Resolution 600
%%EndSetup

15 15 translate
0.283465 0.283465 scale
2.00 SL
0 setlinejoin
200 250 MT
1700 250 LT
ST
1700 250 MT
1700 750 LT
ST
1700 750 MT
200 750 LT
ST
200 750 MT
200 250 LT
ST
2.00 SL
1 setlinejoin
FnC 42 SF
(0 -x- 332  0 -y- 500) 200 205 MS
GS
200 250 1500 500 RC
[] 0 setdash
200 1168 MT
205 1162 LT
209 1156 LT
214 1160 LT
218 1149 LT
223 250 LT
227 250 LT
232 998 LT
236 987 LT
241 1004 LT
245 998 LT
250 992 LT
254 986 LT
259 998 LT
263 998 LT
268 991 LT
272 1008 LT
277 1050 LT
281 1072 LT
290 1072 LT
295 1074 LT
304 1074 LT
308 1076 LT
313 1072 LT
317 1070 LT
322 1064 LT
327 1040 LT
336 1040 LT
340 1038 LT
358 1038 LT
363 1040 LT
367 1042 LT
390 1042 LT
394 1040 LT
408 1040 LT
412 1042 LT
417 1036 LT
421 1034 LT
448 1034 LT
453 1033 LT
458 1030 LT
485 1030 LT
489 1032 LT
494 1034 LT
498 1032 LT
503 1032 LT
507 1034 LT
534 1034 LT
539 1036 LT
543 1040 LT
548 1032 LT
552 1028 LT
566 1028 LT
570 1030 LT
580 1030 LT
584 1028 LT
589 1028 LT
593 1032 LT
620 1032 LT
625 1030 LT
629 1032 LT
634 1028 LT
638 1022 LT
647 1022 LT
652 1020 LT
665 1020 LT
670 1022 LT
674 1024 LT
679 1024 LT
683 1030 LT
702 1030 LT
706 1028 LT
720 1028 LT
724 1026 LT
742 1026 LT
747 1030 LT
751 1028 LT
760 1028 LT
765 1024 LT
769 1022 LT
778 1022 LT
783 1020 LT
792 1020 LT
796 1022 LT
801 1024 LT
805 1026 LT
810 1026 LT
814 1022 LT
823 1022 LT
828 1020 LT
833 1024 LT
837 1022 LT
842 1020 LT
846 1018 LT
851 1017 LT
855 1016 LT
860 1020 LT
873 1020 LT
878 1018 LT
882 1020 LT
887 1020 LT
891 1022 LT
896 1032 LT
900 1020 LT
905 1020 LT
909 1018 LT
914 1016 LT
918 1016 LT
923 1018 LT
932 1018 LT
936 1020 LT
941 1020 LT
945 1022 LT
955 1022 LT
959 1024 LT
964 1024 LT
968 1022 LT
973 1020 LT
977 1018 LT
982 1017 LT
986 1020 LT
1004 1020 LT
1009 1018 LT
1013 1020 LT
1018 1024 LT
1022 1024 LT
1027 1029 LT
1031 1024 LT
1040 1024 LT
1045 1022 LT
1049 1024 LT
1054 1022 LT
1063 1022 LT
1067 1024 LT
1090 1024 LT
1095 1028 LT
1099 1026 LT
1104 1026 LT
1108 1024 LT
1113 1022 LT
1117 1024 LT
1140 1024 LT
1144 1022 LT
1149 1018 LT
1153 1020 LT
1176 1020 LT
1180 1022 LT
1185 1022 LT
1189 1026 LT
1194 1032 LT
1198 1032 LT
1203 1030 LT
1208 1028 LT
1212 1028 LT
1217 1026 LT
1221 1026 LT
1226 1024 LT
1230 1024 LT
1235 1021 LT
1239 1020 LT
1244 1036 LT
1248 1030 LT
1262 1030 LT
1266 1032 LT
1271 1035 LT
1275 1032 LT
1284 1032 LT
1289 1024 LT
1293 1032 LT
1307 1032 LT
1311 1030 LT
1316 1028 LT
1325 1028 LT
1330 1030 LT
1334 1034 LT
1339 1040 LT
1352 1040 LT
1357 1042 LT
1379 1042 LT
1384 1040 LT
1393 1040 LT
1397 1038 LT
1402 1038 LT
1406 1040 LT
1411 1037 LT
1415 1040 LT
1420 1046 LT
1424 1048 LT
1429 1054 LT
1433 1052 LT
1438 1052 LT
1442 1054 LT
1447 1048 LT
1456 1048 LT
1461 1046 LT
1465 1050 LT
1470 1060 LT
1474 1058 LT
1488 1058 LT
1492 1062 LT
1497 1062 LT
1501 1064 LT
1506 1062 LT
1510 1063 LT
1515 1073 LT
1519 1070 LT
1528 1070 LT
1533 1068 LT
1537 1072 LT
1542 1070 LT
1546 1070 LT
1551 1066 LT
1555 1068 LT
1560 1077 LT
1564 1092 LT
1569 1092 LT
1573 1094 LT
1578 1094 LT
1583 1090 LT
1587 1088 LT
1592 1086 LT
1596 1080 LT
1601 1082 LT
1605 1081 LT
1610 1078 LT
1614 1096 LT
1619 1096 LT
1623 1098 LT
1628 1100 LT
1632 1095 LT
1637 1096 LT
1641 1112 LT
1646 250 LT
1700 250 LT
ST
[] 0 setdash
GR
%Trailer
showpage
%%EOF
