%!PS-Adobe-2.0 EPSF-1.2
%%Title: Figure(s) by psgr(fig/fdrw).
%%For: glob
%%CreationDate: Wed Aug 31 20:41:49 2016
%%BoundingBox: 68 63 503 337
%%EndComments

%%BeginProlog
/BD{bind def}bind def
/MT{moveto}BD
/LT{lineto}BD
/RMT{rmoveto}BD
/RLT{rlineto}BD
/ST{stroke}BD
/FnC{/Courier}BD
/FnCO{/Courier-Oblique}BD
/FnCB{/Courier-Bold}BD
/FnCBO{/Courier-BoldOblique}BD
/FnS{/Symbol}BD
/SF{
  exch findfont exch
  dup type /arraytype eq{makefont}{scalefont}ifelse
  setfont
}BD
/MS{MT show}BD
/RMS{RMT show}BD
/GS{gsave}BD
/GR{grestore}BD
/NP{newpath}BD
/RP{
dup type dup /integertype eq exch /realtype eq or {
    4 -2 roll MT
    dup 0 exch RLT exch 0 RLT
    neg 0 exch RLT closepath
  }{
    dup length 4 sub 0 exch 4 exch
    {
      1 index exch 4 getinterval
      aload pop
      RP
    }for
    pop
  }ifelse
}BD
/RS{GS NP RP stroke GR}BD
/RF{GS NP RP fill GR}BD
/RC{NP RP clip NP}BD
/TR{translate}BD
/SL{setlinewidth}BD
/SG{setgray}BD
%%EndProlog

%%BeginSetup
%%PaperSize: FALSE
%%PageOrientation: Portrait
%%Feature: *ManualFeed False
%%Feature: *Resolution 600
%%EndSetup

15 15 translate
0.283465 0.283465 scale
2.00 SL
0 setlinejoin
200 250 MT
1700 250 LT
ST
1700 250 MT
1700 750 LT
ST
1700 750 MT
200 750 LT
ST
200 750 MT
200 250 LT
ST
2.00 SL
1 setlinejoin
FnC 42 SF
(0 -x- 500  0 -y- 500) 200 205 MS
GS
200 250 1500 500 RC
[] 0 setdash
200 1010 MT
203 1012 LT
206 1012 LT
209 1016 LT
212 1016 LT
215 1017 LT
218 1008 LT
221 1006 LT
230 1006 LT
233 1010 LT
236 1012 LT
239 1012 LT
242 1018 LT
245 1022 LT
248 1046 LT
251 1050 LT
254 1050 LT
257 1052 LT
263 1052 LT
266 1050 LT
269 1050 LT
272 1048 LT
275 1036 LT
278 1018 LT
281 1017 LT
284 1017 LT
287 1016 LT
290 1016 LT
293 1018 LT
296 1020 LT
299 1020 LT
302 1022 LT
305 1020 LT
308 1018 LT
317 1018 LT
320 1020 LT
332 1020 LT
335 1017 LT
338 1014 LT
347 1014 LT
350 1016 LT
359 1016 LT
362 1014 LT
380 1014 LT
383 1016 LT
386 1016 LT
389 1015 LT
392 1011 LT
395 1010 LT
404 1010 LT
407 1011 LT
410 1012 LT
416 1012 LT
419 1010 LT
434 1010 LT
437 1012 LT
440 1012 LT
443 1014 LT
446 1016 LT
449 1026 LT
470 1026 LT
473 1024 LT
476 1022 LT
479 1020 LT
506 1020 LT
509 1018 LT
518 1018 LT
521 1020 LT
524 1020 LT
527 1022 LT
530 1022 LT
533 1024 LT
536 1020 LT
551 1020 LT
554 1022 LT
563 1022 LT
566 1020 LT
578 1020 LT
581 1018 LT
584 1018 LT
587 1017 LT
590 1016 LT
593 1018 LT
605 1018 LT
608 1020 LT
617 1020 LT
620 1018 LT
623 1022 LT
626 1020 LT
638 1020 LT
641 1018 LT
644 1018 LT
647 1020 LT
650 1018 LT
668 1018 LT
671 1020 LT
674 1020 LT
677 1022 LT
680 1022 LT
683 1024 LT
692 1024 LT
695 1022 LT
701 1022 LT
704 1018 LT
707 1016 LT
710 1020 LT
713 1018 LT
716 1020 LT
719 1018 LT
722 1016 LT
725 1020 LT
728 1018 LT
731 1018 LT
734 1020 LT
737 1020 LT
740 1024 LT
758 1024 LT
761 1022 LT
764 1024 LT
767 1026 LT
770 1024 LT
773 1024 LT
776 1026 LT
779 1024 LT
782 1026 LT
788 1026 LT
791 1028 LT
794 1028 LT
797 1026 LT
800 1028 LT
803 1026 LT
806 1026 LT
809 1028 LT
812 1026 LT
815 1028 LT
818 1028 LT
821 1026 LT
824 1026 LT
827 1024 LT
830 1024 LT
833 1026 LT
836 1024 LT
839 1024 LT
842 1026 LT
845 1024 LT
848 1026 LT
851 1028 LT
854 1024 LT
857 1026 LT
860 1026 LT
863 1024 LT
866 1026 LT
869 1024 LT
872 1024 LT
875 1026 LT
878 1024 LT
881 1028 LT
884 1026 LT
893 1026 LT
896 1028 LT
899 1024 LT
902 1026 LT
905 1026 LT
908 1022 LT
911 1022 LT
914 1024 LT
935 1024 LT
938 1026 LT
941 1028 LT
959 1028 LT
962 1026 LT
965 1026 LT
968 1024 LT
971 1028 LT
974 1026 LT
977 1026 LT
980 1028 LT
983 1026 LT
986 1028 LT
989 1026 LT
992 1026 LT
995 1028 LT
998 1027 LT
1001 1028 LT
1010 1028 LT
1013 1030 LT
1016 1028 LT
1025 1028 LT
1028 1025 LT
1031 1026 LT
1049 1026 LT
1052 1024 LT
1055 1044 LT
1058 1030 LT
1061 1028 LT
1073 1028 LT
1076 1026 LT
1082 1026 LT
1085 1019 LT
1088 1028 LT
1091 1026 LT
1094 1026 LT
1097 1028 LT
1100 1026 LT
1109 1026 LT
1112 1028 LT
1136 1028 LT
1139 1026 LT
1142 1042 LT
1145 1028 LT
1160 1028 LT
1163 1026 LT
1166 1026 LT
1169 1022 LT
1172 1017 LT
1175 1030 LT
1178 1026 LT
1181 1028 LT
1184 1028 LT
1187 1024 LT
1190 1028 LT
1193 1026 LT
1196 1026 LT
1199 1030 LT
1202 1012 LT
1205 1030 LT
1208 1028 LT
1211 1030 LT
1214 1030 LT
1217 1028 LT
1220 1030 LT
1223 1028 LT
1229 1028 LT
1232 1024 LT
1235 1030 LT
1244 1030 LT
1247 1028 LT
1250 1029 LT
1253 1028 LT
1256 1028 LT
1259 1050 LT
1262 1030 LT
1268 1030 LT
1271 1028 LT
1274 1030 LT
1277 1028 LT
1286 1028 LT
1289 1036 LT
1292 1030 LT
1313 1030 LT
1316 1028 LT
1319 1027 LT
1322 1032 LT
1337 1032 LT
1340 1030 LT
1343 1030 LT
1346 1028 LT
1349 1025 LT
1352 1032 LT
1355 1032 LT
1358 1034 LT
1361 1034 LT
1364 1032 LT
1367 1034 LT
1370 1032 LT
1373 1032 LT
1376 1046 LT
1379 1037 LT
1382 1036 LT
1385 1036 LT
1388 1034 LT
1391 1036 LT
1394 1036 LT
1397 1034 LT
1403 1034 LT
1406 1032 LT
1409 1038 LT
1418 1038 LT
1421 1036 LT
1430 1036 LT
1433 1038 LT
1436 1046 LT
1439 1040 LT
1448 1040 LT
1451 1042 LT
1454 1040 LT
1460 1040 LT
1463 1036 LT
1466 1028 LT
1469 1048 LT
1472 1046 LT
1475 1048 LT
1478 1048 LT
1481 1044 LT
1484 1046 LT
1487 1044 LT
1490 1044 LT
1493 1048 LT
1496 1052 LT
1499 1050 LT
1502 1052 LT
1505 1050 LT
1508 1050 LT
1511 1052 LT
1514 1044 LT
1517 1048 LT
1520 1046 LT
1523 1044 LT
1526 1043 LT
1529 1059 LT
1532 1056 LT
1535 1058 LT
1538 1058 LT
1541 1050 LT
1544 1056 LT
1547 1054 LT
1550 1052 LT
1553 1052 LT
1556 1060 LT
1559 1062 LT
1562 1068 LT
1568 1068 LT
1571 1067 LT
1574 1062 LT
1577 1062 LT
1580 1060 LT
1583 1066 LT
1586 1073 LT
1589 1078 LT
1592 1068 LT
1595 1068 LT
1598 1066 LT
1601 1064 LT
1604 1062 LT
1607 1060 LT
1610 1058 LT
1613 1060 LT
1616 1049 LT
1619 1062 LT
1622 1066 LT
1625 1068 LT
1628 1070 LT
1631 1070 LT
1634 1064 LT
1637 1060 LT
1640 1064 LT
1643 1080 LT
1646 1114 LT
1649 1070 LT
1652 1064 LT
1655 1064 LT
1658 1062 LT
1661 1058 LT
1664 1062 LT
1667 250 LT
1700 250 LT
ST
[] 0 setdash
GR
%Trailer
showpage
%%EOF
