%!PS-Adobe-2.0 EPSF-1.2
%%Title: Figure(s) by psgr(fig/fdrw).
%%For: glob
%%CreationDate: Wed Aug 31 20:41:48 2016
%%BoundingBox: 68 63 503 468
%%EndComments

%%BeginProlog
/BD{bind def}bind def
/MT{moveto}BD
/LT{lineto}BD
/RMT{rmoveto}BD
/RLT{rlineto}BD
/ST{stroke}BD
/FnC{/Courier}BD
/FnCO{/Courier-Oblique}BD
/FnCB{/Courier-Bold}BD
/FnCBO{/Courier-BoldOblique}BD
/FnS{/Symbol}BD
/SF{
  exch findfont exch
  dup type /arraytype eq{makefont}{scalefont}ifelse
  setfont
}BD
/MS{MT show}BD
/RMS{RMT show}BD
/GS{gsave}BD
/GR{grestore}BD
/NP{newpath}BD
/RP{
dup type dup /integertype eq exch /realtype eq or {
    4 -2 roll MT
    dup 0 exch RLT exch 0 RLT
    neg 0 exch RLT closepath
  }{
    dup length 4 sub 0 exch 4 exch
    {
      1 index exch 4 getinterval
      aload pop
      RP
    }for
    pop
  }ifelse
}BD
/RS{GS NP RP stroke GR}BD
/RF{GS NP RP fill GR}BD
/RC{NP RP clip NP}BD
/TR{translate}BD
/SL{setlinewidth}BD
/SG{setgray}BD
%%EndProlog

%%BeginSetup
%%PaperSize: FALSE
%%PageOrientation: Portrait
%%Feature: *ManualFeed False
%%Feature: *Resolution 600
%%EndSetup

15 15 translate
0.283465 0.283465 scale
2.00 SL
0 setlinejoin
200 250 MT
1700 250 LT
ST
1700 250 MT
1700 750 LT
ST
1700 750 MT
200 750 LT
ST
200 750 MT
200 250 LT
ST
2.00 SL
1 setlinejoin
FnC 42 SF
(0 -x- 144  0 -y- 500) 200 205 MS
GS
200 250 1500 500 RC
[] 0 setdash
200 880 MT
210 250 LT
221 250 LT
231 1575 LT
242 1522 LT
252 1488 LT
263 1488 LT
273 1454 LT
283 1403 LT
294 1351 LT
304 250 LT
315 900 LT
325 865 LT
335 250 LT
544 250 LT
554 854 LT
565 829 LT
575 819 LT
585 812 LT
596 250 LT
606 250 LT
617 1152 LT
627 1128 LT
638 1110 LT
648 1083 LT
658 1062 LT
669 1066 LT
679 1014 LT
690 968 LT
700 971 LT
710 970 LT
721 970 LT
731 972 LT
742 982 LT
752 984 LT
763 998 LT
773 1010 LT
783 1024 LT
794 1026 LT
804 1025 LT
815 1024 LT
825 1024 LT
835 1026 LT
867 1026 LT
877 1022 LT
888 1016 LT
929 1016 LT
940 1018 LT
950 1020 LT
960 1020 LT
971 1022 LT
1013 1022 LT
1023 1024 LT
1075 1024 LT
1085 1018 LT
1127 1018 LT
1138 1020 LT
1169 1020 LT
1179 1018 LT
1190 1016 LT
1221 1016 LT
1231 1018 LT
1242 1020 LT
1377 1020 LT
1388 1018 LT
1544 1018 LT
1554 1016 LT
1565 1012 LT
1575 1006 LT
1585 250 LT
1700 250 LT
ST
[] 0 setdash
GR
%Trailer
showpage
%%EOF
