%!PS-Adobe-2.0 EPSF-1.2
%%Title: Figure(s) by psgr(fig/fdrw).
%%For: glob
%%CreationDate: Thu Sep  1 00:47:14 2016
%%BoundingBox: 68 63 503 336
%%EndComments

%%BeginProlog
/BD{bind def}bind def
/MT{moveto}BD
/LT{lineto}BD
/RMT{rmoveto}BD
/RLT{rlineto}BD
/ST{stroke}BD
/FnC{/Courier}BD
/FnCO{/Courier-Oblique}BD
/FnCB{/Courier-Bold}BD
/FnCBO{/Courier-BoldOblique}BD
/FnS{/Symbol}BD
/SF{
  exch findfont exch
  dup type /arraytype eq{makefont}{scalefont}ifelse
  setfont
}BD
/MS{MT show}BD
/RMS{RMT show}BD
/GS{gsave}BD
/GR{grestore}BD
/NP{newpath}BD
/RP{
dup type dup /integertype eq exch /realtype eq or {
    4 -2 roll MT
    dup 0 exch RLT exch 0 RLT
    neg 0 exch RLT closepath
  }{
    dup length 4 sub 0 exch 4 exch
    {
      1 index exch 4 getinterval
      aload pop
      RP
    }for
    pop
  }ifelse
}BD
/RS{GS NP RP stroke GR}BD
/RF{GS NP RP fill GR}BD
/RC{NP RP clip NP}BD
/TR{translate}BD
/SL{setlinewidth}BD
/SG{setgray}BD
%%EndProlog

%%BeginSetup
%%PaperSize: FALSE
%%PageOrientation: Portrait
%%Feature: *ManualFeed False
%%Feature: *Resolution 600
%%EndSetup

15 15 translate
0.283465 0.283465 scale
2.00 SL
0 setlinejoin
200 250 MT
1700 250 LT
ST
1700 250 MT
1700 750 LT
ST
1700 750 MT
200 750 LT
ST
200 750 MT
200 250 LT
ST
2.00 SL
1 setlinejoin
FnC 42 SF
(0 -x- 384  0 -y- 500) 200 205 MS
GS
200 250 1500 500 RC
[] 0 setdash
200 1017 MT
204 1034 LT
208 1020 LT
212 1016 LT
216 1015 LT
220 1018 LT
235 1018 LT
239 1014 LT
243 1011 LT
247 1012 LT
251 1014 LT
255 1022 LT
259 1034 LT
263 1036 LT
266 1040 LT
270 1042 LT
278 1042 LT
282 1040 LT
286 1035 LT
290 1036 LT
294 1040 LT
302 1040 LT
305 1042 LT
313 1042 LT
317 1040 LT
321 1039 LT
325 1038 LT
329 1038 LT
333 1040 LT
345 1040 LT
348 1042 LT
352 1044 LT
364 1044 LT
368 1046 LT
372 1050 LT
376 1050 LT
380 1052 LT
384 1052 LT
388 1054 LT
391 1054 LT
395 1052 LT
399 1048 LT
403 1044 LT
407 1044 LT
411 1046 LT
415 1047 LT
419 1050 LT
423 1050 LT
427 1052 LT
430 1052 LT
434 1044 LT
438 1046 LT
446 1046 LT
450 1050 LT
454 1054 LT
458 1054 LT
462 1056 LT
466 1058 LT
470 1058 LT
473 1052 LT
477 1056 LT
481 1062 LT
485 1068 LT
489 1068 LT
493 1064 LT
497 1062 LT
509 1062 LT
513 1063 LT
516 1058 LT
520 1049 LT
524 1043 LT
528 1042 LT
532 1058 LT
536 1066 LT
540 1064 LT
544 1064 LT
548 1058 LT
552 1052 LT
555 1045 LT
559 1055 LT
563 1044 LT
567 1044 LT
571 1048 LT
575 1052 LT
583 1052 LT
587 1048 LT
591 1043 LT
595 1042 LT
598 1067 LT
602 1071 LT
606 1066 LT
610 1044 LT
614 1040 LT
618 1034 LT
622 1028 LT
626 1026 LT
630 1048 LT
634 1045 LT
638 1088 LT
641 1102 LT
645 1078 LT
649 1062 LT
653 1061 LT
657 1054 LT
661 1050 LT
665 1046 LT
669 1050 LT
673 1056 LT
677 1083 LT
680 1076 LT
684 1073 LT
688 1040 LT
692 1040 LT
696 1030 LT
700 1021 LT
704 1025 LT
708 1054 LT
712 1050 LT
716 1052 LT
720 1066 LT
723 1058 LT
727 1058 LT
731 1064 LT
735 1060 LT
739 1050 LT
743 1045 LT
747 1044 LT
751 1039 LT
755 1069 LT
759 1035 LT
763 986 LT
766 1028 LT
770 1064 LT
774 1066 LT
778 1062 LT
782 1058 LT
786 1046 LT
790 1039 LT
794 1055 LT
798 1040 LT
802 1042 LT
805 1056 LT
809 1060 LT
813 1062 LT
817 1062 LT
821 1060 LT
825 1056 LT
829 1051 LT
833 1067 LT
837 1065 LT
841 1071 LT
845 1054 LT
848 1050 LT
852 1050 LT
856 1048 LT
860 1049 LT
864 1065 LT
868 1064 LT
872 1062 LT
880 1062 LT
884 1064 LT
888 1068 LT
891 1070 LT
895 1070 LT
899 1069 LT
903 1065 LT
907 1050 LT
911 1062 LT
915 1059 LT
919 1062 LT
923 1064 LT
930 1064 LT
934 1066 LT
938 1062 LT
942 1066 LT
946 1062 LT
950 1087 LT
954 1071 LT
958 1043 LT
962 1057 LT
966 1068 LT
970 1072 LT
973 1078 LT
977 1079 LT
981 1080 LT
985 1072 LT
989 1069 LT
993 1070 LT
997 1072 LT
1001 1083 LT
1005 1070 LT
1009 1066 LT
1016 1066 LT
1020 250 LT
1048 250 LT
1052 1068 LT
1055 1064 LT
1059 1062 LT
1063 1076 LT
1067 1092 LT
1071 1102 LT
1075 1084 LT
1079 1090 LT
1083 1107 LT
1091 1107 LT
1095 1108 LT
1098 1108 LT
1102 250 LT
1118 250 LT
1122 1051 LT
1126 1060 LT
1130 1060 LT
1134 1052 LT
1138 1064 LT
1141 1072 LT
1149 1072 LT
1153 250 LT
1462 250 LT
1466 1040 LT
1470 1036 LT
1477 1036 LT
1481 1032 LT
1485 1038 LT
1489 1036 LT
1493 1028 LT
1497 1034 LT
1501 1034 LT
1505 1032 LT
1509 1027 LT
1513 1030 LT
1516 1030 LT
1520 1023 LT
1524 1030 LT
1528 1030 LT
1532 1017 LT
1536 1038 LT
1540 1044 LT
1544 1036 LT
1548 1034 LT
1552 1034 LT
1555 1032 LT
1559 1026 LT
1563 1034 LT
1567 1030 LT
1571 1032 LT
1575 1040 LT
1579 1066 LT
1583 1052 LT
1587 1052 LT
1591 1054 LT
1595 1052 LT
1598 1052 LT
1602 1054 LT
1606 1048 LT
1610 1056 LT
1614 1054 LT
1618 1064 LT
1622 1062 LT
1641 1062 LT
1645 1060 LT
1653 1060 LT
1657 1058 LT
1661 1053 LT
1665 250 LT
1700 250 LT
ST
[] 0 setdash
GR
%Trailer
showpage
%%EOF
