%!PS-Adobe-2.0 EPSF-1.2
%%Title: Figure(s) by psgr(fig/fdrw).
%%For: glob
%%CreationDate: Wed Aug 31 20:41:47 2016
%%BoundingBox: 68 63 503 350
%%EndComments

%%BeginProlog
/BD{bind def}bind def
/MT{moveto}BD
/LT{lineto}BD
/RMT{rmoveto}BD
/RLT{rlineto}BD
/ST{stroke}BD
/FnC{/Courier}BD
/FnCO{/Courier-Oblique}BD
/FnCB{/Courier-Bold}BD
/FnCBO{/Courier-BoldOblique}BD
/FnS{/Symbol}BD
/SF{
  exch findfont exch
  dup type /arraytype eq{makefont}{scalefont}ifelse
  setfont
}BD
/MS{MT show}BD
/RMS{RMT show}BD
/GS{gsave}BD
/GR{grestore}BD
/NP{newpath}BD
/RP{
dup type dup /integertype eq exch /realtype eq or {
    4 -2 roll MT
    dup 0 exch RLT exch 0 RLT
    neg 0 exch RLT closepath
  }{
    dup length 4 sub 0 exch 4 exch
    {
      1 index exch 4 getinterval
      aload pop
      RP
    }for
    pop
  }ifelse
}BD
/RS{GS NP RP stroke GR}BD
/RF{GS NP RP fill GR}BD
/RC{NP RP clip NP}BD
/TR{translate}BD
/SL{setlinewidth}BD
/SG{setgray}BD
%%EndProlog

%%BeginSetup
%%PaperSize: FALSE
%%PageOrientation: Portrait
%%Feature: *ManualFeed False
%%Feature: *Resolution 600
%%EndSetup

15 15 translate
0.283465 0.283465 scale
2.00 SL
0 setlinejoin
200 250 MT
1700 250 LT
ST
1700 250 MT
1700 750 LT
ST
1700 750 MT
200 750 LT
ST
200 750 MT
200 250 LT
ST
2.00 SL
1 setlinejoin
FnC 42 SF
(0 -x- 161  0 -y- 500) 200 205 MS
GS
200 250 1500 500 RC
[] 0 setdash
200 1093 MT
209 1059 LT
219 1054 LT
228 1048 LT
237 1042 LT
247 1040 LT
256 1074 LT
265 1065 LT
275 1038 LT
284 1032 LT
293 1022 LT
302 1022 LT
312 1044 LT
321 1050 LT
330 1052 LT
340 1052 LT
349 1040 LT
358 1042 LT
368 1054 LT
377 1066 LT
386 1106 LT
396 1066 LT
405 1078 LT
414 1065 LT
424 1060 LT
433 1062 LT
442 1080 LT
452 1075 LT
461 1062 LT
470 1054 LT
480 1044 LT
489 1034 LT
498 1089 LT
507 1094 LT
517 1102 LT
526 1102 LT
535 1084 LT
545 1075 LT
554 1080 LT
563 1088 LT
573 1160 LT
582 1134 LT
591 1094 LT
601 1104 LT
610 1086 LT
619 1086 LT
629 1090 LT
638 1106 LT
647 1098 LT
657 1074 LT
666 1074 LT
675 1066 LT
684 1066 LT
694 1104 LT
703 1142 LT
712 1145 LT
722 1126 LT
731 1122 LT
740 1117 LT
750 1112 LT
759 1115 LT
768 1090 LT
778 1072 LT
787 1104 LT
796 1097 LT
806 1096 LT
815 1099 LT
824 1099 LT
834 1108 LT
843 1109 LT
852 1112 LT
861 1126 LT
871 1134 LT
880 1152 LT
889 1103 LT
899 1124 LT
908 1094 LT
917 1093 LT
927 1092 LT
936 250 LT
945 250 LT
955 1132 LT
964 1128 LT
973 1132 LT
983 1108 LT
992 1072 LT
1001 1082 LT
1011 1046 LT
1020 1038 LT
1029 1033 LT
1039 250 LT
1048 250 LT
1057 1158 LT
1066 1136 LT
1076 1124 LT
1085 1084 LT
1094 1084 LT
1104 1061 LT
1113 1053 LT
1122 1045 LT
1132 250 LT
1169 250 LT
1178 1074 LT
1188 1062 LT
1197 1048 LT
1206 1029 LT
1216 1013 LT
1225 250 LT
1262 250 LT
1271 1040 LT
1281 1034 LT
1290 1032 LT
1299 1024 LT
1309 1019 LT
1318 250 LT
1337 250 LT
1346 1099 LT
1355 1076 LT
1365 1066 LT
1374 1073 LT
1383 1074 LT
1393 1076 LT
1402 1069 LT
1411 1063 LT
1420 1075 LT
1430 1094 LT
1439 1098 LT
1448 1069 LT
1458 1033 LT
1467 1024 LT
1476 1028 LT
1486 1010 LT
1495 990 LT
1504 250 LT
1514 1082 LT
1523 1080 LT
1532 1075 LT
1542 1083 LT
1551 1088 LT
1560 1121 LT
1570 1105 LT
1579 1098 LT
1588 1080 LT
1598 1084 LT
1607 250 LT
1700 250 LT
ST
[] 0 setdash
GR
%Trailer
showpage
%%EOF
