%!PS-Adobe-2.0 EPSF-1.2
%%Title: Figure(s) by psgr(fig/fdrw).
%%For: glob
%%CreationDate: Wed Aug 31 20:43:38 2016
%%BoundingBox: 68 63 503 434
%%EndComments

%%BeginProlog
/BD{bind def}bind def
/MT{moveto}BD
/LT{lineto}BD
/RMT{rmoveto}BD
/RLT{rlineto}BD
/ST{stroke}BD
/FnC{/Courier}BD
/FnCO{/Courier-Oblique}BD
/FnCB{/Courier-Bold}BD
/FnCBO{/Courier-BoldOblique}BD
/FnS{/Symbol}BD
/SF{
  exch findfont exch
  dup type /arraytype eq{makefont}{scalefont}ifelse
  setfont
}BD
/MS{MT show}BD
/RMS{RMT show}BD
/GS{gsave}BD
/GR{grestore}BD
/NP{newpath}BD
/RP{
dup type dup /integertype eq exch /realtype eq or {
    4 -2 roll MT
    dup 0 exch RLT exch 0 RLT
    neg 0 exch RLT closepath
  }{
    dup length 4 sub 0 exch 4 exch
    {
      1 index exch 4 getinterval
      aload pop
      RP
    }for
    pop
  }ifelse
}BD
/RS{GS NP RP stroke GR}BD
/RF{GS NP RP fill GR}BD
/RC{NP RP clip NP}BD
/TR{translate}BD
/SL{setlinewidth}BD
/SG{setgray}BD
%%EndProlog

%%BeginSetup
%%PaperSize: FALSE
%%PageOrientation: Portrait
%%Feature: *ManualFeed False
%%Feature: *Resolution 600
%%EndSetup

15 15 translate
0.283465 0.283465 scale
2.00 SL
0 setlinejoin
200 250 MT
1700 250 LT
ST
1700 250 MT
1700 750 LT
ST
1700 750 MT
200 750 LT
ST
200 750 MT
200 250 LT
ST
2.00 SL
1 setlinejoin
FnC 42 SF
(0 -x- 279  0 -y- 500) 200 205 MS
GS
200 250 1500 500 RC
[] 0 setdash
200 917 MT
205 887 LT
211 886 LT
216 886 LT
222 872 LT
227 857 LT
232 250 LT
238 250 LT
243 1392 LT
248 1394 LT
254 1440 LT
259 1444 LT
265 1446 LT
270 1448 LT
275 1446 LT
281 1443 LT
286 1456 LT
291 250 LT
297 1208 LT
302 1205 LT
308 1196 LT
313 1195 LT
318 1131 LT
324 1094 LT
329 1050 LT
334 1042 LT
340 1042 LT
345 1038 LT
356 1038 LT
361 1043 LT
367 1064 LT
372 1123 LT
377 1128 LT
394 1128 LT
399 1130 LT
404 1130 LT
410 1128 LT
415 1119 LT
420 1109 LT
426 1079 LT
431 1086 LT
437 1084 LT
442 1081 LT
447 1077 LT
453 1078 LT
463 1078 LT
469 1080 LT
474 1082 LT
480 1079 LT
485 1078 LT
490 1079 LT
496 1077 LT
501 1076 LT
517 1076 LT
523 1078 LT
528 1080 LT
533 1080 LT
539 1072 LT
544 1078 LT
549 1084 LT
576 1084 LT
582 1085 LT
587 1082 LT
592 1082 LT
598 1094 LT
603 1108 LT
609 1092 LT
614 1078 LT
619 1077 LT
625 1076 LT
630 1075 LT
635 1083 LT
641 250 LT
1592 250 LT
1598 1014 LT
1603 1019 LT
1609 1017 LT
1614 1016 LT
1619 1012 LT
1625 1016 LT
1630 1017 LT
1635 1028 LT
1641 1030 LT
1646 250 LT
1700 250 LT
ST
[] 0 setdash
GR
%Trailer
showpage
%%EOF
