%!PS-Adobe-2.0 EPSF-1.2
%%Title: Figure(s) by psgr(fig/fdrw).
%%For: glob
%%CreationDate: Wed Aug 31 20:41:49 2016
%%BoundingBox: 68 63 503 350
%%EndComments

%%BeginProlog
/BD{bind def}bind def
/MT{moveto}BD
/LT{lineto}BD
/RMT{rmoveto}BD
/RLT{rlineto}BD
/ST{stroke}BD
/FnC{/Courier}BD
/FnCO{/Courier-Oblique}BD
/FnCB{/Courier-Bold}BD
/FnCBO{/Courier-BoldOblique}BD
/FnS{/Symbol}BD
/SF{
  exch findfont exch
  dup type /arraytype eq{makefont}{scalefont}ifelse
  setfont
}BD
/MS{MT show}BD
/RMS{RMT show}BD
/GS{gsave}BD
/GR{grestore}BD
/NP{newpath}BD
/RP{
dup type dup /integertype eq exch /realtype eq or {
    4 -2 roll MT
    dup 0 exch RLT exch 0 RLT
    neg 0 exch RLT closepath
  }{
    dup length 4 sub 0 exch 4 exch
    {
      1 index exch 4 getinterval
      aload pop
      RP
    }for
    pop
  }ifelse
}BD
/RS{GS NP RP stroke GR}BD
/RF{GS NP RP fill GR}BD
/RC{NP RP clip NP}BD
/TR{translate}BD
/SL{setlinewidth}BD
/SG{setgray}BD
%%EndProlog

%%BeginSetup
%%PaperSize: FALSE
%%PageOrientation: Portrait
%%Feature: *ManualFeed False
%%Feature: *Resolution 600
%%EndSetup

15 15 translate
0.283465 0.283465 scale
2.00 SL
0 setlinejoin
200 250 MT
1700 250 LT
ST
1700 250 MT
1700 750 LT
ST
1700 750 MT
200 750 LT
ST
200 750 MT
200 250 LT
ST
2.00 SL
1 setlinejoin
FnC 42 SF
(0 -x- 99  0 -y- 500) 200 205 MS
GS
200 250 1500 500 RC
[] 0 setdash
200 250 MT
215 250 LT
230 1148 LT
245 1159 LT
261 1144 LT
276 1150 LT
291 1152 LT
306 1144 LT
321 1142 LT
367 1142 LT
382 250 LT
397 948 LT
412 948 LT
427 946 LT
442 946 LT
458 934 LT
473 906 LT
488 904 LT
518 904 LT
533 901 LT
548 904 LT
564 913 LT
579 946 LT
594 1032 LT
609 1032 LT
624 1033 LT
639 1032 LT
655 1030 LT
670 1032 LT
685 1028 LT
700 1024 LT
715 1022 LT
730 1016 LT
745 998 LT
761 992 LT
776 990 LT
791 991 LT
806 992 LT
821 992 LT
836 993 LT
852 994 LT
867 992 LT
882 986 LT
897 984 LT
942 984 LT
958 986 LT
973 989 LT
988 990 LT
1003 991 LT
1018 984 LT
1033 980 LT
1064 980 LT
1079 982 LT
1094 988 LT
1109 992 LT
1124 996 LT
1139 989 LT
1155 985 LT
1170 987 LT
1185 984 LT
1200 986 LT
1215 986 LT
1230 994 LT
1245 992 LT
1261 993 LT
1276 993 LT
1291 986 LT
1306 1012 LT
1321 1014 LT
1336 1019 LT
1352 1023 LT
1367 1036 LT
1382 250 LT
1700 250 LT
ST
[] 0 setdash
GR
%Trailer
showpage
%%EOF
