%!PS-Adobe-2.0 EPSF-1.2
%%Title: Figure(s) by psgr(fig/fdrw).
%%For: glob
%%CreationDate: Wed Aug 31 20:41:48 2016
%%BoundingBox: 68 63 503 305
%%EndComments

%%BeginProlog
/BD{bind def}bind def
/MT{moveto}BD
/LT{lineto}BD
/RMT{rmoveto}BD
/RLT{rlineto}BD
/ST{stroke}BD
/FnC{/Courier}BD
/FnCO{/Courier-Oblique}BD
/FnCB{/Courier-Bold}BD
/FnCBO{/Courier-BoldOblique}BD
/FnS{/Symbol}BD
/SF{
  exch findfont exch
  dup type /arraytype eq{makefont}{scalefont}ifelse
  setfont
}BD
/MS{MT show}BD
/RMS{RMT show}BD
/GS{gsave}BD
/GR{grestore}BD
/NP{newpath}BD
/RP{
dup type dup /integertype eq exch /realtype eq or {
    4 -2 roll MT
    dup 0 exch RLT exch 0 RLT
    neg 0 exch RLT closepath
  }{
    dup length 4 sub 0 exch 4 exch
    {
      1 index exch 4 getinterval
      aload pop
      RP
    }for
    pop
  }ifelse
}BD
/RS{GS NP RP stroke GR}BD
/RF{GS NP RP fill GR}BD
/RC{NP RP clip NP}BD
/TR{translate}BD
/SL{setlinewidth}BD
/SG{setgray}BD
%%EndProlog

%%BeginSetup
%%PaperSize: FALSE
%%PageOrientation: Portrait
%%Feature: *ManualFeed False
%%Feature: *Resolution 600
%%EndSetup

15 15 translate
0.283465 0.283465 scale
2.00 SL
0 setlinejoin
200 250 MT
1700 250 LT
ST
1700 250 MT
1700 750 LT
ST
1700 750 MT
200 750 LT
ST
200 750 MT
200 250 LT
ST
2.00 SL
1 setlinejoin
FnC 42 SF
(0 -x- 150  0 -y- 500) 200 205 MS
GS
200 250 1500 500 RC
[] 0 setdash
200 992 MT
210 992 LT
220 995 LT
230 996 LT
240 996 LT
250 994 LT
260 994 LT
270 992 LT
310 992 LT
320 994 LT
330 992 LT
340 990 LT
350 990 LT
360 988 LT
390 988 LT
400 990 LT
410 992 LT
420 990 LT
430 990 LT
440 988 LT
450 988 LT
460 990 LT
490 990 LT
500 993 LT
510 992 LT
530 992 LT
540 991 LT
550 990 LT
610 990 LT
620 989 LT
630 988 LT
640 992 LT
680 992 LT
690 994 LT
870 994 LT
880 996 LT
890 998 LT
900 998 LT
910 1000 LT
920 996 LT
930 996 LT
940 994 LT
970 994 LT
980 992 LT
1000 992 LT
1010 994 LT
1070 994 LT
1080 996 LT
1090 996 LT
1100 994 LT
1190 994 LT
1200 992 LT
1250 992 LT
1260 990 LT
1280 990 LT
1290 994 LT
1350 994 LT
1360 990 LT
1440 990 LT
1450 992 LT
1510 992 LT
1520 990 LT
1530 986 LT
1540 984 LT
1550 978 LT
1560 980 LT
1570 250 LT
1700 250 LT
ST
[] 0 setdash
GR
%Trailer
showpage
%%EOF
